xrun.log
xrun(64): 20.09-s001: (c) Copyright 1995-2020 Cadence Design Systems, Inc.
xrun: *W,FMDEF: The default file type mapping of .sv is being overwritten.
TOOL:	xrun(64)	20.09-s001: Started on Apr 05, 2025 at 04:29:15 EDT
xrun
	+xm64bit
	-sv
	-vlogext .sv
	-f 00_src/flist.f
		00_src/BlackCell.sv
		00_src/GrayCell.sv
		00_src/BrentKung.sv
		00_src/xor16.sv
		00_src/pg16.sv
		00_src/BK256.sv
		00_src/modular_multiplication.sv
		00_src/modular_subtractor.sv
		00_src/modular_addition.sv
		00_src/ECPA.sv
		00_src/ECPD.sv
		00_src/modular_inversion.sv
		00_src/scalar_mult.sv
	01_tb/tb_scalar_mult.sv
	-timescale 1ns/10ps
	+access+rcw
Recompiling... reason: file './01_tb/tb_scalar_mult.sv' is newer than expected.
	expected: Sat Apr  5 04:05:19 2025
	actual:   Sat Apr  5 04:27:42 2025
file: 01_tb/tb_scalar_mult.sv
	module worklib.tb_scalar_mult:sv
		errors: 0, warnings: 0
		Caching library 'worklib' ....... Done
	Elaborating the design hierarchy:
	Top level design units:
		modular_inversion
		tb_scalar_mult
xmelab: *W,DSEMEL: This SystemVerilog design will be simulated as per IEEE 1800-2009 SystemVerilog simulation semantics. Use -disable_sem2009 option for turning off SV 2009 simulation semantics.
	Building instance overlay tables: .................... Done
	Generating native compiled code:
		worklib.tb_scalar_mult:sv <0x59a20513>
			streams:  11, words:  9697
	Building instance specific data structures.
	Loading native compiled code:     .................... Done
	Design hierarchy summary:
		                   Instances  Unique
		Modules:                7737      14
		Primitives:            28928       3
		Registers:               806     221
		Scalar wires:            795       -
		Expanded wires:        18944    4378
		Vectored wires:          386       -
		Always blocks:           347      47
		Initial blocks:            1       1
		Cont. assignments:       330      72
		Pseudo assignments:      932     254
		Simulation timescale:   10ps
	Writing initial simulation snapshot: worklib.modular_inversion:sv
Loading snapshot worklib.modular_inversion:sv .................... Done
xmsim: *W,DSEM2009: This SystemVerilog design is simulated as per IEEE 1800-2009 SystemVerilog simulation semantics. Use -disable_sem2009 option for turning off SV 2009 simulation semantics.
xcelium> source /opt/cadence/XCELIUM2009/tools/xcelium/files/xmsimrc
xcelium> run
Time: 1049500 | bit_pos: 255 | X0: 981862a18d2f3391a5bd8acb7db6ce5eeedbc2e38df59600c6ec94dbb4a2d55b, Y0: a82576adb5ea5015343d863c9aa585ff8ad2b4fdf9d7a703f0cb6f69c92513c3, Z0: 0000000000000000000000000000000000000000000000000000000000000001 | X1: 3a930c7ae3c0946398060887fee69177cda655831247840636f42af82b7d8fde, Y1: 2d0d4f2f594eb70c35236373f11ecce6934dfd2b571c7ec033139bf008099e4f, Z1: 504aed5b6bd4a02a687b0c79354b0bff15a569fbf3af4e07e196ded4924a2b57
Time: 1050500 | bit_pos: 254 | X0: 981862a18d2f3391a5bd8acb7db6ce5eeedbc2e38df59600c6ec94dbb4a2d55b, Y0: a82576adb5ea5015343d863c9aa585ff8ad2b4fdf9d7a703f0cb6f69c92513c3, Z0: 0000000000000000000000000000000000000000000000000000000000000001 | X1: 3a930c7ae3c0946398060887fee69177cda655831247840636f42af82b7d8fde, Y1: 2d0d4f2f594eb70c35236373f11ecce6934dfd2b571c7ec033139bf008099e4f, Z1: 504aed5b6bd4a02a687b0c79354b0bff15a569fbf3af4e07e196ded4924a2b57
Time: 4013500 | bit_pos: 253 | X0: 8a5e27c901c7de6dcae2ba77864b4485b1d4b829329a77fe06ed5405ed22df51, Y0: 788caf9b7a851bf19bcc3586097d287048638cb483cb2bdfa54ad01057aa2d55, Z0: 2abb21a46b0dd488b47f05ab589bd2856a71303c616a90a70a43bfe353f36b9f | X1: 6c14d637f03990f7d2c8a6f51c87dd8e0f9a83f49f1b9d222bdf8e0d9f5c35ef, Y1: dfbb98269ca8f47df2bf5ff63e925c8bfee7710bd815fb7659b30fe89f39e221, Z1: f7b82ef7514ab01df5554c406ac5b4c49cbaf781fa4d3ba5c08b968241f88fc3
Time: 7044500 | bit_pos: 252 | X0: 2c310c578bf8e8e44593aae4f469e6b257c5a277b420a9e23ce29185d55b16a6, Y0: 13204185c18da3fb25167be8e5cc298ac3e36e8a701b629a8f72c8f72c2b90e9, Z0: e60dac1be1adf2f9cbe6b96558dd59e3eb661793bfabcee949d9d52e4bf0fb57 | X1: e56e44c46eb1cfd9b41d1259e2fae7a93add668cf015262afd717c27dac04ed3, Y1: bbc44cc440d91600cbaf00ad58ab600ad7f000b1c1a6ddbc5e6e6b20e83960d4, Z1: 44b9a3140f6bd20d372224efbe0f9494a1482bbfeb74fcee6e8008766bf217e3
Time: 10075500 | bit_pos: 251 | X0: 5073f2c4410fddd647353ecbf22c708ec84215b8fa298cbafc60446653cec6a5, Y0: 81a24bc6512ff374a8717fa378405010c32b7f2113159b814352b7a617f6e873, Z0: 3458a6385c16bae95b246d41e00295bb16940fa8a6656ed4c47d0f16bfb7d41c | X1: 528b2739ac9c88e92c3336327e99312b64bf6391dcbc7939ce0e0e392d442c89, Y1: 0e0ccdfa0f826901f0dec3049a2cd978f82caf26acfd6cc7232fbfdb2950df93, Z1: 4f169554ee291f74201d9d5158dfd393b4412eca642acd4673d304ab821ddf88
Time: 13106500 | bit_pos: 250 | X0: 836989ec5ddd0306c6cae87b7f86aaa5ef4fcfdfd1e679a175b6de9adf7d26b4, Y0: 3b2c102ddeba681a9d5c04491c084bb7ac2ef747b5f0e4b4b1922d237e68756e, Z0: 3f7b9d9a480d7fe891261b33ee2d9fb331282d617bc634cb0ab04e917f8513c6 | X1: 18875a34f9cc68b29d8b510c755e1f7403893777a8701fdc44a6c5526ccb2fd2, Y1: 47814b9baeafdcc5fa94178b7719f1beca98aa81dbf0c7285af86a3e36e55659, Z1: 808b832e61b4cd30546d62b8d2278738d62a46474e0d2d28cf7a09b6b4e56546
Time: 16137500 | bit_pos: 249 | X0: 9a08f0ad9fa9c79bde977ae1e2b0a6bb0df26bd5e996858b2a0f25838316cf0a, Y0: 067e7ce0aafc62183fee77ef577c33504d40cc94e2ef96428f0063dd45912af9, Z0: e3beaba57a9d39ea4451e6cf5efde1e94f9d2c2f5af0e0cbdb1776be203c955a | X1: 6ebf11dd8054cbb6eaa3b6a11ebb9dd4dd696b6e2cf619f61305fbf2f4fc9dfb, Y1: 17e12a04d25b31a4d1d33442d8ebcd5b9e7c40b135c3e7e02a011dffd4258be0, Z1: 961e7e7f0b68b9083121fd1411212a8bc2ecffa07b84c3efaf2dbc8e8e79a901
Time: 19168500 | bit_pos: 248 | X0: 6a32a0833557b543d75839f62ef98da7302c72d22a6e5be09408620401ad6ad2, Y0: 38fb70ce1b353aa2ad655ff4f5d5018d27baba48b35ddc0a05e029bb27cc58d1, Z0: 2316625b1bd300930bc3020113adb871a10ae30f8ccaaf1c5a0aa659e46b65f6 | X1: ab3b99880d3c71b38d3d2da8f22286ecdae0351643b46af51f54c1b0a62f0560, Y1: 4c13871740891d704848d8e3ce0cb69a23f856dd8daf0cd36ab902ffeccde4b3, Z1: 139e23a0683645e6923d99b25ade23908ddc9bbc5c3e5bac75bcfd3d367c9a98
Time: 22199500 | bit_pos: 247 | X0: 8b7a92b3fa187230b8496687d6ee3436fa49fe072da132ae1a0aaefa10262ff9, Y0: 6a076d2d96f855302747366091904c4dae83c97ac3c2b3e988bf631168c5606b, Z0: 68593c7a0ab0ba774fd539ea782587e5fbbf9e398022efd2608d23f26320597d | X1: 191a5023116f75ae7f9e1dbcdeb2cd889bcfee2bb6e3f188534d3b2a7e732447, Y1: ae5874ddec3fef46f19b657234810379af595484570df7bba4ba2e96863ed158, Z1: 2383eb25b986664fb0449a279559de17d391385d7b1f80c70719e47853718b7b
Time: 25230500 | bit_pos: 246 | X0: 24a724a3ae4cef96fe76e0a1adb90dee47c05b612c67f901f5892814d476db2e, Y0: d16a82db1cd83dcff529597fdb9e5d62b9a63d5817722fbe595931fe9bbadef0, Z0: e7c612161ec93c65dd40ac05124576f89f51820a36a17121cea17a7e8f18aaf3 | X1: 55d1d458e601763fc0dc94623b2dec5ab99597ac794f7e647db3b68f8e703aa5, Y1: aed60315ef048fabfb58653feff40e010cc6639d0aebc60afc27639ffb5d4838, Z1: ccaaead47292841ca50cb718e4e95c1448782310370f83208c7a0a16fe5142a0
Time: 28261500 | bit_pos: 245 | X0: e9d862c2d1f36ab70fa2e3daa95f2478fa3017c0874249be840426d72d3a9878, Y0: 13a3f80088aa8148c1b070ea83103ebb82af4ecad5f2dcd1f4a35a099dc9ad04, Z0: 7dc61a5cff6970122f32ddbb82019c2a0589a6c8ab0d9613d8649348bddd61c9 | X1: b0037c298b197632e00b5bfde1b6814a5fd5ff7a908253389c0db56f03bf36c9, Y1: c72e8308b80c93c4beafdb7d2d535dbcb5e870baa410a124acbc1ae739856b74, Z1: be8841373a591e6cebf98b87de4ff0ec22eded60ca332f9211dfa4a15a993682
Time: 31292500 | bit_pos: 244 | X0: f2cb64f80d2d94f7d0673a22b3fff5ffc0a72a8b3e4cc7fef5900bb512087e2e, Y0: 6b8b0aab6391daf6c9319f7261ff618deae0d9ce736fa7a48fa348ea5d508089, Z0: f057454f92fd3792fd6978b296dd95b8be9d83263d479e3384034a711f4fcf4b | X1: fa9b4d6a6859250c2d7b74b3f57e6593fd83a4786eecbe327acf00f2b2d5716b, Y1: aad07bf5ef8a24552cdabd66cd8f8bdc6fa3a53b4d967677147b61cd92fbb0ec, Z1: c0c2ecc31373979821ae61378f885aa146f5161573456dee9f15541eef9490e0
Time: 34323500 | bit_pos: 243 | X0: 879fe45a15f56e12c9fb3074b6e229f481a64a0c13f147f7c5111683a51f34e5, Y0: 0fb9c9a3c1ada5019a18e9eda65284cddf13d042c28926fa219887e5b052f7e1, Z0: e158dff8115c827f51204b756de57c0b1b5b2d1f0374c3ab8530e51c510712dd | X1: 4438009df9a9bc96106e3e3233067dc1cc7d9effe8bbe001de10c43f493a4058, Y1: ad90f6ca79f5bde18825ad555741c287555039415fe225546a91bc09b3bcc6a4, Z1: 5af25c64fabc2328f807d987b0bda1792c3407b6edb3bd046bbb622106f88829
Time: 37354500 | bit_pos: 242 | X0: d06c66a00b05f54762d0c1991b2f5415918c908b9e51567e5f38a99789bf4ccf, Y0: bf7ce707a91028278941d74874d27ac5601fb28fb7f5d488c57900904df844c6, Z0: 46fa666f7bbecf2e209ea92e77145022840185ce4a369a161ae61fad532aed80 | X1: b36c3d12eb568261375610f67b74f43c756f3db9ca266d7b1a6dfe3990859e44, Y1: 1023749ff988423a834bf0574c76e413b875df9770f2ab16fab92bac1194e593, Z1: 6025115785b48a4a0bd702a23177e62ae181b58525099f05f028483373ed7194
Time: 40385500 | bit_pos: 241 | X0: 18dd105ed9c078cefe11b292ba3f0c773cc6a052d2a96360475cd04ddf56c3ed, Y0: 0f3d7f4abe4a0391bd1a84520455f4a00982e9cc646410fd5c4e618236c392ee, Z0: 1da9af1ad3393900a281145bb9c4d8b42397dd554ed9c668ec2840033fac94c2 | X1: 3cab08ba66b7973bb8b51855fef92508738b9e29313be5e8c431cd1ee2720527, Y1: bf463130e6b82ebffdb4c55970774b7f32c0009d48a859b5ca7010efc6456651, Z1: 409009cc76b2c32aaa703c73d82f6bf63c6c1e4db0c6aff199d46723187a9426
Time: 43416500 | bit_pos: 240 | X0: 9882a27132867b325507251ff1edbb7301761ddd1ed29d76e201c74cd5fcae70, Y0: 5f7b112ddf8e4125ce99f3cac7b78fad2a43bf986db8e29b8bbf468451b721a1, Z0: 92299cf39fe2aa05712ef03fe167913483a4492468c799a9942dc5daf90d2cdb | X1: 88457f5d6ba1a76a481e6ef18ba30aaf0687495f2d23995c73c78b569bbe45fd, Y1: 23e6e61873802f7e61bd67444a9e2429e3328818fd369136f77fc9a35a812d25, Z1: bf8a7e715aae3ac62af18e02e437486d6fed2eea28e30490dcb5bfcd81430638
Time: 46447500 | bit_pos: 239 | X0: c87de2540c1f35dfb4001d091739f9c5f4f7eecc46b0073bb57b6c237db4d134, Y0: 24506cb0f61e73769b90b77f668b63caecbd54c781145410ac0f4963fa3877dc, Z0: e42b8b40ef267063e55ff636b4a3b3b62a2c5376c70848deb1dcc26ebe538511 | X1: 81b3d21fa4cdd3246b9a339560cfb3de1f29ba28c32dece5f1ee597c8c7a5e8c, Y1: 98c84187db18e7e4d17f5cfaa3047fb7698f04e6f8f4a5e2a297d2bda8c5ffaa, Z1: 29fe14a88c7514f08586439b73653e1a621ff0166ca7e25519b3866a3a004cc5
Time: 49478500 | bit_pos: 238 | X0: 60158b7afb53a1745d34862f8cad243fab563bc5d9cc8c7b74ba3978dcf53770, Y0: eb17bbc7bd6f0aa819b0b01c7e6f1ffcb77fec1e4a5f6cb033d44f958f592710, Z0: e2ecee2817f37baf9f78644396ffe2de10ae371668853605f608b4119cfb8535 | X1: 87a8315abeae25f48cef1471f9be68ce9ff381f3e439a4a1945939176cad1a1e, Y1: b7d3ea476b592f90bba47dfb420810339e3c5e358b21179907188db57a9bd2a1, Z1: 8413f48a431490fe57088a8afb646ce1427f8df3474168c78174cf8b86564952
Time: 52509500 | bit_pos: 237 | X0: 5ea97fa12dca5940c6b93c99cf2737637c7d56bba4be3ab4973e71e85833403f, Y0: c4a8acdb59c3608a68beef393d60c944da4ccc4feb96b44c74b863876f9717d5, Z0: 3af665a733c6cabe49018f30ee7ec39156f1b1d6919bf7e66f8a5a3675e8e395 | X1: 54a4ceecb0d344e01d1b0ace2513102d7768a08ecef57e5d8053d4e3a0244c99, Y1: 58454562689c8b41e7ce7f3193eb13714749424f5883f82a9ca5e1bf10b9f8f6, Z1: 4a3b7da313a78fe670999e45a123d2838077181ee5d20a5d25ac6fb0cec7421b
Time: 55540500 | bit_pos: 236 | X0: d2901c219e3063bf0bc22be74bb640632395b4d9d885c9841a441b34281cdbdb, Y0: 25d3572f9ee3af7cd92f9a8a52524d62bb28dab8579c6374d671929ec4802133, Z0: efe774e084eab2f99ff5b5b45d094404ae372c4700ac9cc676752eee7fd1e8b9 | X1: 26c703b72d32d7294a129a1b486a8602113e86a57f796d866c151f7ca13193e5, Y1: d0ee9c2300638fb937a0e5a0a6df23f9f91a1a608e5907cebcb39c045b3e23a6, Z1: ede4bdf74c13729ad17be4ce3c15184e5f5bd9bbebe1a784ce6d8a77ff4c3c17
Time: 58571500 | bit_pos: 235 | X0: 38c96ad9839a2d7f2c6b7e1a0c6539550c5742c780974f9764ef971f7f3d5436, Y0: e2ff8ea89d1f6b18c3f2892bc7165693a6adaf9a015e39095d6a1ad9d374d585, Z0: 9011833ef5d568d84eee51bf31dd13a3efdf1d71b53b7b68a12c226e1e85c0ca | X1: 92c3b4b7b154b9ec5dc8c444fca84cedb3d9c619897e6f5d6fa0e182d99d1b35, Y1: eb2c43c8d3b1863f76a4b2d3d91855e69a34e51ef17930317200daeea791d5db, Z1: 1aca83862d05b67260244361036fbafb0cb7710694c0fd1543755b8a0e262cc7
Time: 61602500 | bit_pos: 234 | X0: b4bcdbee43ed7c4850ad6368bd1eb9616e383a2af99a145ec9d6b9268ab2171b, Y0: 0dc80ff5a28795929a7d7eadb3b3cc8b042dbcdb6095065745f2ca9bc0443e3b, Z0: 5a94c068a6f918c5902f0d41b65bf6e98eeb21702391851dce61567e22600905 | X1: fe21ad20fe6b7a5be11fd09cbe738df0242926c39d6ef3428f5580c338b535a6, Y1: 84cdf6c4e35f177efdb03ee50d594d79f19eb10d3f6332dfec21621c19952c9d, Z1: db7cd6683c36a8d2478d97c438c94780a9be7ff3db6133821d58e233dcaa358c
Time: 64633500 | bit_pos: 233 | X0: 738bee03e467cdf70582a05f2d127bd366a4bc6adccc0399c45dc014969a8f33, Y0: 5c6f72cd6a99471aba8bdc370cad11f58827f716442eda3a0766a7e10cb920e7, Z0: f1aacd26917c989d873c71d00a36702f170abb7c76575fdaeaf8b3a2c2830f0d | X1: 2b15f4fb67e20816c42757290de7a7b29b7236dda6bb415890cf5e49ee5a11e6, Y1: 678ef8ff225ffd6dcf3991c4bd2c3872fa51564ce824cdfc968443830df3681d, Z1: 97bb09ecaa00a2be400a1301c9a913ca5179050a98c74a74213c16e3f8b638ea
Time: 67664500 | bit_pos: 232 | X0: 433ef714ed25dcc565a600b295d3bfe878e2b60e77fd0f3e4c8eaebaf5b09fc5, Y0: a5e0a09f084044737657fd210bd2e381672432f448035630eeddbb6bc2ddeac7, Z0: 299951bb76561fc7225eade5a71b600f6bdc4a9e8c522b889b7a210a63410c8b | X1: 1a5d74f1d9655e57eb3cc2a18842ba8c2d34c943178c5abc74511be416a432eb, Y1: fcd0f161c3064cb8464b1497d541fcfb81400bcb4717f70600caebfad84172a7, Z1: 0839bf228adc12788fb112709caaeb6ea86cf7d52597a79c9a553ef4d49bf40d
Time: 70695500 | bit_pos: 231 | X0: 3485022a81c6c7041c30df784abe4fffdc43d66fbe772731e161874198dbdadd, Y0: 57e81de117261b9c826459944b89d9d19b0c77fdb723eca73b5d400b7f4af68c, Z0: 429840ba86e0340e136f9f2f031a5f2be35fab684329b073434e5e35f95e38e1 | X1: f1eb000c95cc73bed9afc01a93a0546ad7bffa20e220746c893874f77d892b71, Y1: 675c1f890aa475d6a770df808d2b2f44a6d2e41776cef552def024c385546b86, Z1: 7e6a5ba54a8da55c46235a26710784cd97de6009ddb3553aae07ba9034a4ff7d
Time: 73726500 | bit_pos: 230 | X0: 4a88d20e8a8e48134d9ca5de4fe6798669c320a837a12496769f20d622ffee6f, Y0: 09be88ebbcffd23c46960cf4b9c20d4d683cee186912f29471ea597623256cc6, Z0: 4ea59bd25e54825c1da9e6588cc2887e732e1490ec221eb80838848071b3bf06 | X1: 5cbfd56dc5f3d347c300f0accde3af51255a13929ee9497fc33db59298d5bf6d, Y1: b74f5d5696d3c299de458e8f9f52aadd5dd356476ce8554cd0556d2844115e9d, Z1: a866a1204177097907abb3df0ac2831d4a869a8ad67be493e50e136df97fd27b
Time: 76757500 | bit_pos: 229 | X0: 38793ec13e99a9344efbe611ec518b9f38d6cd67ccea934732d8a7b274263a8b, Y0: cf97dc56f197e09475f224044aedddd632f8cd77902e1959eb564ab83857fdcb, Z0: 3153bd99f236ca75b14137721b607b44d0c5e7ba674026ce583f3615def23c84 | X1: d4071575471eed2d18ce0d994b248f709c8d8d70a7c418b27a60741a3441bc53, Y1: 2ac00dce83b0a54054b12dab5e8d7b59ab4a531b1a4197ea730328a07fe7f4db, Z1: 88ce0972442fd15b0ab4fe6740f2a49baa2b3eea360204839e832b5396942584
Time: 79788500 | bit_pos: 228 | X0: f1e14fbb7cae56402b9060f9c7bcfb8caeb7985820b340599768bbb04cbb0a7d, Y0: 4e5df57c4adf8eec9faa48363d4e08f5aedb2985d550dbca185c9728a181e0b2, Z0: b81a76ccb204ba0eee845816d4ef537037826be2724abf07e2a8669034b978fe | X1: 2bd47284051b618126c16d8d34739837c40a8bfb2c0fcf44d812b641fba71332, Y1: fe5fc0beca23f627b6ed422e125c2a6cf293ebbeef30f6df34b5fb9fcf7d79d0, Z1: 3b123b5e1249bb80a418404f367b1c4e38f039ce1c9a95bcf9c0c8762cd9969a
Time: 82819500 | bit_pos: 227 | X0: 9a6c2beea998b04e41e88abaa322732c61fbd8a296002e633fbe7c76fc816b84, Y0: 45db65f0fada68d76751e04ee15ffa41c0f27b6f55bbe59a21af3550ec4cd3cd, Z0: 635af924a11ffeb13f5eec2ac911a45517e549e0a45cf83d5c7444285fd301da | X1: 299d478bdb00312ccfdc6d21edd8cf6294ddac551d328a53b7298e0840896c21, Y1: ed2467da77e93cce35dd0983108089898df07837e5c6a2731fad1350e48d9304, Z1: d226622cbafea62254c5b2fdd792e37106bad200cef7ef20ea87cf71aff17003
Time: 85850500 | bit_pos: 226 | X0: 8733e1fa0bca3d1ba36b65355312f27dd36b6fd23fea68fdd31518187d25f76a, Y0: 949e70fe548f584ffe76206e245e5f7c2c0bf712efb1ab5fa7a986a87590fe97, Z0: e59d4c88a8b7f27f1fa993760b2d643dbc6974c7edd39f39a349288a260147bf | X1: 1417d6288978cbb97e2d0f7093483cbd763748fa50aa1c73acf5141b65d824bd, Y1: 7bc07f3137f454825b0ee21f8cc1df033b41e1421a6286288d6d11a504c8f207, Z1: 306ec9d44b89de490e00bc82ba707507de6318bb38b70c9aefaf189a185e558f
Time: 88881500 | bit_pos: 225 | X0: 33655390d1956032d239b9d2277e7292bfd78ec3f8d3642f1f1c9a6e05914179, Y0: b2137f760557c6f0a37157d956234515371d937479ed20d0eaa10fc11edf8221, Z0: 721dccd984ee5066fe5ca9471482be6a93ce066814eddefd954b7534eccf22cd | X1: 2a4b4133fc6aa4b50047a61df0aa045124d57f79ae3cb375ecd9c0b745050486, Y1: a583b03dc1e38bdedb38bda17e188cbbbc893672254e0da9f7caed9b8b456d3e, Z1: 73c304e8416aded248d26bf36be01347777f7f78627a3d3ae7ea31bf038516a7
Time: 91912500 | bit_pos: 224 | X0: b9bf10490aacf9ae0e11a988ff3dc286c170cce92bade979681a70bc26a962ae, Y0: 54410e6d5b1a6261d8f14907c4a32396b3d20e132d9dca9ebd761627ff321559, Z0: 188a902c2df190d864049ada69f342fd7046e4b0155164b92b5dbc628e831172 | X1: 2fa03a8e91b3494f5746efc0a8af37662f1806b6ded5402892d2e3b5efed6135, Y1: 5dd9c4eb65e68223ddcc8c6d677f230cdbeefd4248bb3840fba3df31c31e70ba, Z1: c90e4aab72438468b99f24a7ecf0a1a044222d67d68ed00968f73a66fd8b831a
Time: 94943500 | bit_pos: 223 | X0: a4f878d9cf76145524d87493b0485503facf166b23ec2d0cf26d04d46261ced2, Y0: 8ac6135408c70d1173b73065a759b58c74b7df5db8564970012e12cb90cb62fe, Z0: df68ee6ef2ce1b268f6386ff657ca01db47c8137ef3ef80a0d35e6179446e98e | X1: 978ea9b6bfff7e3b3f99aaf9ce3dce4721d025af021a81e433009dd4e6a9786e, Y1: 35876473d84666b00116c64c5288a7035eef49d3dde0155ad523eeca01fba2d9, Z1: 61cb205bdbbfb10748e6ef137b0072545a2243d933d4342d4cd4434ede1dcc0a
Time: 97974500 | bit_pos: 222 | X0: 84aa0c1ad903e876fc4a5f74bd44812e2f89e844de13b1d471005d98e243c6ab, Y0: 6773323f43b68cfe195a4a5bb83072c8ad431cda82f5b4e744425364f9be984c, Z0: 5929deba520827b9b79e7a70ccb7a7f201601c91485ebc6007db0aa96bc2f9b6 | X1: 93fc98430d064facbaf06ebb255b25b4ef03b5cc2898877829e96b4c447efea1, Y1: 0d9a2c224824117c20f00b8a1b3e8a0160ffdb759885bdabdabd111ea4e6a51e, Z1: 17577c44e8c7dcf597480c17b1a430b2b1686547f29834fea90e64d5dafc9c2b
Time: 101005500 | bit_pos: 221 | X0: 49f38f399a0ba9564ccab3282d51953105aa6b00b850e3af08b3a2493626f2ed, Y0: 8e4262d2d8ab5736fdbf168f4e11566d2181bf33ee2ecd9ab92859cbbacdf9fe, Z0: 7419f204ab9640d2b0d529b872c841d7beba82e8fd321914c80d21e60b87318a | X1: 32150d5591974ae04e1e0c26fba6568f06e8f7100d99f658039c0423e0530c5e, Y1: 542f7bc654b87f11c8723ac7ad7b5a2caf2693da9fd3b77b5583977b639d1e7a, Z1: f434207e6f085876d82ccdbeff07f8efcaaa52f446964d75f3d26e85d7ed455d
Time: 104036500 | bit_pos: 220 | X0: 9332958eae0225ec6bbf1d8d960b6715be028521d02ff691a155f001db1dcdb1, Y0: b845c3557ef3a1f0ce0bf657432c86be22ecb26ec46431ec22dc38251c1fe147, Z0: c36ac19f8e712f197a07f4ae8df2cb5f9207f829b1e7cb1fe5f356f8db4247e9 | X1: d9a3a200ca4d12f3f7d96b5af8aa34cd42cf5dea1aa60e6ad774a698b424fb63, Y1: 4f12833ed26b1fa5c7f41cbda6ab116898a43c12ac669f05e247299cfb940bb2, Z1: 3af14cc2cfc35725c677517cb1d26412eeaf10e7d66c1971de614385dfbd390b
Time: 107067500 | bit_pos: 219 | X0: 609574d9e1a0c5b67e49904ad87ee949ff2d9310f440c96dc9213f6e7d0b9ac6, Y0: fdad081f3be7dcd2492d5dbf075c7637fbab28f34672ca0b4f8933864dbe8cf2, Z0: 4e42fab25c23c03c2911dd0cd40feed43cf6cafe14577abe18497c53592d5724 | X1: ab0de3472615f6a01f28df234d533b2d89ecb87b6c68bf6db669557267455eda, Y1: 139b192a101f5ff3078e43a7275bf2544c48d20edb8f89e8bcbba6c55222c393, Z1: 5410a72e20375d07054a374a80ceb8d69b3087a5ea44abbcbfe079e5200ae76f
Time: 110098500 | bit_pos: 218 | X0: 7808d732ec8d3041f5f026d4258fac59d33041c9f00c2ed2a4cbca1209f7c76b, Y0: 84effdc697e8cb96f950c0e920f512b4545d3cb44599f67ee419a8bb24163bba, Z0: 854d91fc7cf6b3fa77be5a8301ced8ff379727b0a2a758c3520d8eb728f53e66 | X1: 38fef61a5163b7516a1591b6183929c4dd86717c267e6ec96f34ca89b762ec8a, Y1: bfd5956e8fa5701ac5304a6430bc295c5acd83372e7874446f8a2a5e219824b2, Z1: 00727db4dd6fd55c570a3d1066c22eee919bbea00cea84a7d9942a7ade4a0e24
Time: 113129500 | bit_pos: 217 | X0: 17d149b5a3e2d0f128979a1df027d972678175b4137c410f9e9976df8ed72567, Y0: 53288ec0e22f3c8856a889d388b6bd2b8abaf0da8c52eee558bf8374686056ee, Z0: 26b280c358609ac4f319a79420ff9a097b2532e6c01bf3deae384242eb6b1238 | X1: 9f0dc0c1db2ffdf6295b6260c2052d2e2bab741b3668faa50f0d503d2d59b5c9, Y1: d853c46b8a06ee4a97e7bc7e0e33138febcee38bfca8862da64cb7d043354f51, Z1: 82550d791546793d01bfe41ffe055f137a1e9128efe5504014ae428b126868c7
Time: 116160500 | bit_pos: 216 | X0: ac49f61c6f9ae144de8332e1ce7171b6e646204dc0aefe5c491582654be02742, Y0: 9f205276b0fbdb49d515d8ead4476cc403045cec9086d4722009d725a4cb2c1b, Z0: 3249d0635811e35c9c1252c87e50b330c79468f624ab75905ae506283716daef | X1: 266b5724a05e4d831f16efe839e62d56d66c8b160537e613ce3161140664b2fe, Y1: fe2befbd5531ed1594fb038020551b06ddadaa8235a330892a3a0e855cb0ad06, Z1: c4c056fc86b6cb94ed5606ff676b0259353fc736a9565024b15b942d796949ef
Time: 119191500 | bit_pos: 215 | X0: 89f571147aa04dcf2fe634b7c9825e0c185f3a35ad9766e64d2d566c421d1d0e, Y0: 90ce99410ccc45fdf8eb345fff40fbefbae3ce8f1b9240c942ad8f40d75d448d, Z0: 50a871fbe407410369252d662dc25287505e9d5087277661628668bdd86c7158 | X1: f73f2380ffd53e77820d65fae550b71ed4a4d7a5f48a79811f2639262b751680, Y1: cb16b096d981a7961eb607c8c50e4c5abd25239282d6b7d6cddb8e16a1e6e0a3, Z1: 8a95ff0ec13d9eb66fa65538d00db1964faded86f6a072a334edec6946a069ef
Time: 122222500 | bit_pos: 214 | X0: 7827384bc3953e644d4a7b7df4e05fbbd8f2866c06a2032bb873db45050cc13f, Y0: 61b9942606081f44eade6be8741164a16a59a3990f1750f97b2b2fc26a5794ed, Z0: 25e9f6db3f507bc98f0762de08e310e1b7eb1f5385e638528dd96c5317db94fb | X1: 489d9126156880271c52284633f75c0dd9e6c4209d8d7be7db6f841066d60fcb, Y1: 9d072b29571927b07de83cb85033eea176e9cd9bd0b8ee0a526436e3b0b0a502, Z1: 3b29554f63f89ea74398c2173f65310c13b767bbcc63f3d9d00bc70a6aa4397e
Time: 125253500 | bit_pos: 213 | X0: a85ad9b53f53d8ae37a9421bf69135e94e656c88dadc9f299861bfc1bee53914, Y0: 7137cd04cd2687f8c45f81f92bcda49fe2b5ae42354816254ab48c95f0e9d2e9, Z0: edd8822b2bfa00af07d6c67bd47ca72a92787b443327541c9aafe9240525b8a8 | X1: dae9c078cbf7487f33d08f910a370f9dc946c8b820310c9409a70146f6bfeb42, Y1: 4839e8622af74a90385f8b9863e55d78a6287087d4fa6cc52e336db963e903c1, Z1: f8c39bcc44ffe5d6674f0bdc587a6407a4d63f0480863f7d9768cecd3e1a1e7f
Time: 128284500 | bit_pos: 212 | X0: 824b8a3ebd5a9eb90636cd24aac035d7bb58bcfd5f5aa77befcb2a10048395be, Y0: 874557b98624502f1d1ad4270474830e5ad71821b7428debbf6e8a9ea7cdbd92, Z0: 7ec88276ae7cd4a92fe71dc1f54d7aaadd19d2f372aee63f00d34e5796cc5416 | X1: e8cd126d3d701859e1bb4ca5089aa2f0733939ea3eec73d4d6eb3c1c91630a3a, Y1: 5df1855eecefdfe5510147824075dd07e47f3d44b6ec4182d8a832aa58f3905b, Z1: c55c4a7d68443a7f0b151ce8801a057af2c2f4198acf33a48731f30c4dc004de
Time: 131315500 | bit_pos: 211 | X0: 12e3c8cb36239756bfe47658aeb836bdcd35fb0abc895ce2538d202ef79d70c4, Y0: d013b1491a3ccfa54433e3dedeba337e390406c17d726e55b7be00484ace21c5, Z0: 2d2c36924fbe0412ce6d6545a861cfa5ab999802bc257071d97e67817737a448 | X1: 61d2e2da17af301d3a0b54db3cb8259831c74257933533a1fd7ce6b4687c74e3, Y1: af29d0dc261ff9379fcc7fd241dd549a85f872c9946cf7789dc22a3fcbebea5a, Z1: 557fd9cadc426156e59696d64530204271aca477c4888c1f044cf14bf9f8477f
